error: proc macro panicked
 --> tests/yaml_fails/bitfield_bool_no_offset.rs:3:1
  |
3 | build_register_lib!("$DIR/tests/yaml_fails/bitfield_bool_no_offset.yaml...
  | ^^^^^^^^^^^^^^^^^^^^^^^^^^^^^^^^^^^^^^^^^^^^^^^^^^^^^^^^^^^^^^^^^^^^^^^^^^^^^^^^^^^^^^^^^^^^^^^^^^^^^^^^^^^^^^^^^^^^^^^^^^^^^^^^^^^^^^^^^^^^^^^^^^^^^^^^^^^^^^
  |
  = help: message: Error parsing the YAML to our schema: Cannot parse the config for register "control": Cannot parse the bitfields: Cannot parse the multi-bitfield for field "go": Missing bitfield key: "offset"
