error: proc macro panicked
 --> tests/yaml_fails/invalid_bool_default_bitfield.rs:3:1
  |
3 | build_register_lib!("$DIR/tests/yaml_fails/invalid_bool_default_bitfield.yaml...
  | ^^^^^^^^^^^^^^^^^^^^^^^^^^^^^^^^^^^^^^^^^^^^^^^^^^^^^^^^^^^^^^^^^^^^^^^^^^^^^^^^^^^^^^^^^^^^^^^^^^^^^^^^^^^^^^^^^^^^^^^^^^^^^^^^^^^^^^^^^^^^^^^^^^^^^^^^^^^^^^^^^^^^
  |
  = help: message: Error parsing the YAML to our schema: Cannot parse the config for register "control": Cannot parse the bitfields: Cannot parse the multi-bitfield for field "go": Cannot parse the yaml value for "offset": "thisisnotright"; provided string was not `true` or `false`
