error: proc macro panicked
 --> tests/yaml_fails/overflowing_offset_uint_bitfield_fail.rs:3:1
  |
3 | build_register_lib!("$DIR/tests/yaml_fails/overflowing_offset_uint_bitfield_fail.yaml...
  | ^^^^^^^^^^^^^^^^^^^^^^^^^^^^^^^^^^^^^^^^^^^^^^^^^^^^^^^^^^^^^^^^^^^^^^^^^^^^^^^^^^^^^^^^^^^^^^^^^^^^^^^^^^^^^^^^^^^^^^^^^^^^^^^^^^^^^^^^^^^^^^^^^^^^^^^^^^^^^^^^^^^^^^^^^^^^
  |
  = help: message: The bitfield settings for bitfield "foo" will cause the register to overflow given the packed size (32).
