error: proc macro panicked
 --> tests/yaml_fails/repeated_bitfield_name_fail.rs:3:1
  |
3 | build_register_lib!("$DIR/tests/yaml_fails/repeated_bitfield_name_fail.yaml...
  | ^^^^^^^^^^^^^^^^^^^^^^^^^^^^^^^^^^^^^^^^^^^^^^^^^^^^^^^^^^^^^^^^^^^^^^^^^^^^^^^^^^^^^^^^^^^^^^^^^^^^^^^^^^^^^^^^^^^^^^^^^^^^^^^^^^^^^^^^^^^^^^^^^^^^^^^^^^^^^^^^^^
  |
  = help: message: Error scanning the YAML document: Error handling node: Key already exists in the hash map at line 14 column 1
